{
    "count": 37,
    "next": "https://swapi.co/api/starships/?page=3",
    "previous": "https://swapi.co/api/starships/?page=1",
    "results": [
        {
            "MGLT": "60",
            "cargo_capacity": "unknown",
            "consumables": "2 years",
            "cost_in_credits": "104000000",
            "created": "2014-12-18T10:54:57.804000Z",
            "crew": "5400",
            "edited": "2014-12-22T17:35:44.957852Z",
            "films": [
                "https://swapi.co/api/films/3/"
            ],
            "hyperdrive_rating": "1.0",
            "length": "1200",
            "manufacturer": "Mon Calamari shipyards",
            "max_atmosphering_speed": "n/a",
            "model": "MC80 Liberty type Star Cruiser",
            "name": "Calamari Cruiser",
            "passengers": "1200",
            "pilots": [],
            "starship_class": "Star Cruiser",
            "url": "https://swapi.co/api/starships/27/"
        },
        {
            "MGLT": "120",
            "cargo_capacity": "40",
            "consumables": "1 week",
            "cost_in_credits": "175000",
            "created": "2014-12-18T11:16:34.542000Z",
            "crew": "1",
            "edited": "2014-12-22T17:35:44.978754Z",
            "films": [
                "https://swapi.co/api/films/3/"
            ],
            "hyperdrive_rating": "1.0",
            "length": "9.6",
            "manufacturer": "Alliance Underground Engineering, Incom Corporation",
            "max_atmosphering_speed": "1300",
            "model": "RZ-1 A-wing Interceptor",
            "name": "A-wing",
            "passengers": "0",
            "pilots": [
                "https://swapi.co/api/people/29/"
            ],
            "starship_class": "Starfighter",
            "url": "https://swapi.co/api/starships/28/"
        },
        {
            "MGLT": "91",
            "cargo_capacity": "45",
            "consumables": "1 week",
            "cost_in_credits": "220000",
            "created": "2014-12-18T11:18:04.763000Z",
            "crew": "1",
            "edited": "2014-12-22T17:35:45.011193Z",
            "films": [
                "https://swapi.co/api/films/3/"
            ],
            "hyperdrive_rating": "2.0",
            "length": "16.9",
            "manufacturer": "Slayn & Korpil",
            "max_atmosphering_speed": "950",
            "model": "A/SF-01 B-wing starfighter",
            "name": "B-wing",
            "passengers": "0",
            "pilots": [],
            "starship_class": "Assault Starfighter",
            "url": "https://swapi.co/api/starships/29/"
        },
        {
            "MGLT": "unknown",
            "cargo_capacity": "unknown",
            "consumables": "unknown",
            "cost_in_credits": "unknown",
            "created": "2014-12-19T17:01:31.488000Z",
            "crew": "9",
            "edited": "2014-12-22T17:35:45.027308Z",
            "films": [
                "https://swapi.co/api/films/4/"
            ],
            "hyperdrive_rating": "2.0",
            "length": "115",
            "manufacturer": "Corellian Engineering Corporation",
            "max_atmosphering_speed": "900",
            "model": "Consular-class cruiser",
            "name": "Republic Cruiser",
            "passengers": "16",
            "pilots": [],
            "starship_class": "Space cruiser",
            "url": "https://swapi.co/api/starships/31/"
        },
        {
            "MGLT": "unknown",
            "cargo_capacity": "65",
            "consumables": "7 days",
            "cost_in_credits": "200000",
            "created": "2014-12-19T17:39:17.582000Z",
            "crew": "1",
            "edited": "2014-12-22T17:35:45.079452Z",
            "films": [
                "https://swapi.co/api/films/5/",
                "https://swapi.co/api/films/4/"
            ],
            "hyperdrive_rating": "1.0",
            "length": "11",
            "manufacturer": "Theed Palace Space Vessel Engineering Corps",
            "max_atmosphering_speed": "1100",
            "model": "N-1 starfighter",
            "name": "Naboo fighter",
            "passengers": "0",
            "pilots": [
                "https://swapi.co/api/people/11/",
                "https://swapi.co/api/people/60/",
                "https://swapi.co/api/people/35/"
            ],
            "starship_class": "Starfighter",
            "url": "https://swapi.co/api/starships/39/"
        },
        {
            "MGLT": "unknown",
            "cargo_capacity": "unknown",
            "consumables": "unknown",
            "cost_in_credits": "unknown",
            "created": "2014-12-19T17:45:03.506000Z",
            "crew": "8",
            "edited": "2014-12-22T17:35:45.091925Z",
            "films": [
                "https://swapi.co/api/films/4/"
            ],
            "hyperdrive_rating": "1.8",
            "length": "76",
            "manufacturer": "Theed Palace Space Vessel Engineering Corps, Nubia Star Drives",
            "max_atmosphering_speed": "920",
            "model": "J-type 327 Nubian royal starship",
            "name": "Naboo Royal Starship",
            "passengers": "unknown",
            "pilots": [
                "https://swapi.co/api/people/39/"
            ],
            "starship_class": "yacht",
            "url": "https://swapi.co/api/starships/40/"
        },
        {
            "MGLT": "unknown",
            "cargo_capacity": "2500000",
            "consumables": "30 days",
            "cost_in_credits": "55000000",
            "created": "2014-12-20T09:39:56.116000Z",
            "crew": "1",
            "edited": "2014-12-22T17:35:45.105522Z",
            "films": [
                "https://swapi.co/api/films/4/"
            ],
            "hyperdrive_rating": "1.5",
            "length": "26.5",
            "manufacturer": "Republic Sienar Systems",
            "max_atmosphering_speed": "1180",
            "model": "Star Courier",
            "name": "Scimitar",
            "passengers": "6",
            "pilots": [
                "https://swapi.co/api/people/44/"
            ],
            "starship_class": "Space Transport",
            "url": "https://swapi.co/api/starships/41/"
        },
        {
            "MGLT": "unknown",
            "cargo_capacity": "unknown",
            "consumables": "1 year",
            "cost_in_credits": "2000000",
            "created": "2014-12-20T11:05:51.237000Z",
            "crew": "5",
            "edited": "2014-12-22T17:35:45.124386Z",
            "films": [
                "https://swapi.co/api/films/5/"
            ],
            "hyperdrive_rating": "0.7",
            "length": "39",
            "manufacturer": "Theed Palace Space Vessel Engineering Corps, Nubia Star Drives",
            "max_atmosphering_speed": "2000",
            "model": "J-type diplomatic barge",
            "name": "J-type diplomatic barge",
            "passengers": "10",
            "pilots": [],
            "starship_class": "Diplomatic barge",
            "url": "https://swapi.co/api/starships/43/"
        },
        {
            "MGLT": "unknown",
            "cargo_capacity": "unknown",
            "consumables": "unknown",
            "cost_in_credits": "unknown",
            "created": "2014-12-20T17:24:23.509000Z",
            "crew": "unknown",
            "edited": "2014-12-22T17:35:45.135987Z",
            "films": [
                "https://swapi.co/api/films/5/"
            ],
            "hyperdrive_rating": "unknown",
            "length": "390",
            "manufacturer": "Botajef Shipyards",
            "max_atmosphering_speed": "unknown",
            "model": "Botajef AA-9 Freighter-Liner",
            "name": "AA-9 Coruscant freighter",
            "passengers": "30000",
            "pilots": [],
            "starship_class": "freighter",
            "url": "https://swapi.co/api/starships/47/"
        },
        {
            "MGLT": "unknown",
            "cargo_capacity": "60",
            "consumables": "7 days",
            "cost_in_credits": "180000",
            "created": "2014-12-20T17:35:23.906000Z",
            "crew": "1",
            "edited": "2014-12-22T17:35:45.147746Z",
            "films": [
                "https://swapi.co/api/films/5/",
                "https://swapi.co/api/films/6/"
            ],
            "hyperdrive_rating": "1.0",
            "length": "8",
            "manufacturer": "Kuat Systems Engineering",
            "max_atmosphering_speed": "1150",
            "model": "Delta-7 Aethersprite-class interceptor",
            "name": "Jedi starfighter",
            "passengers": "0",
            "pilots": [
                "https://swapi.co/api/people/10/",
                "https://swapi.co/api/people/58/"
            ],
            "starship_class": "Starfighter",
            "url": "https://swapi.co/api/starships/48/"
        }
    ]
}
