{
    "count": 87,
    "next": "https://gotev.github.io/swapi-android/people/?page=5",
    "previous": "https://gotev.github.io/swapi-android/people/?page=3",
    "results": [
        {
            "birth_year": "92BBY",
            "created": "2014-12-19T16:54:53.618000Z",
            "edited": "2014-12-20T21:17:50.375000Z",
            "eye_color": "blue",
            "films": [
                "https://gotev.github.io/swapi-android/films/4/"
            ],
            "gender": "male",
            "hair_color": "brown",
            "height": "193",
            "homeworld": "https://gotev.github.io/swapi-android/planets/28/",
            "mass": "89",
            "name": "Qui-Gon Jinn",
            "skin_color": "fair",
            "species": [
                "https://gotev.github.io/swapi-android/species/1/"
            ],
            "starships": [],
            "url": "https://gotev.github.io/swapi-android/people/32/",
            "vehicles": [
                "https://gotev.github.io/swapi-android/vehicles/38/"
            ]
        },
        {
            "birth_year": "unknown",
            "created": "2014-12-19T17:05:57.357000Z",
            "edited": "2014-12-20T21:17:50.377000Z",
            "eye_color": "red",
            "films": [
                "https://gotev.github.io/swapi-android/films/5/",
                "https://gotev.github.io/swapi-android/films/4/",
                "https://gotev.github.io/swapi-android/films/6/"
            ],
            "gender": "male",
            "hair_color": "none",
            "height": "191",
            "homeworld": "https://gotev.github.io/swapi-android/planets/18/",
            "mass": "90",
            "name": "Nute Gunray",
            "skin_color": "mottled green",
            "species": [
                "https://gotev.github.io/swapi-android/species/11/"
            ],
            "starships": [],
            "url": "https://gotev.github.io/swapi-android/people/33/",
            "vehicles": []
        },
        {
            "birth_year": "91BBY",
            "created": "2014-12-19T17:21:45.915000Z",
            "edited": "2014-12-20T21:17:50.379000Z",
            "eye_color": "blue",
            "films": [
                "https://gotev.github.io/swapi-android/films/4/"
            ],
            "gender": "male",
            "hair_color": "blond",
            "height": "170",
            "homeworld": "https://gotev.github.io/swapi-android/planets/9/",
            "mass": "unknown",
            "name": "Finis Valorum",
            "skin_color": "fair",
            "species": [
                "https://gotev.github.io/swapi-android/species/1/"
            ],
            "starships": [],
            "url": "https://gotev.github.io/swapi-android/people/34/",
            "vehicles": []
        },
        {
            "birth_year": "52BBY",
            "created": "2014-12-19T17:29:32.489000Z",
            "edited": "2014-12-20T21:17:50.383000Z",
            "eye_color": "orange",
            "films": [
                "https://gotev.github.io/swapi-android/films/5/",
                "https://gotev.github.io/swapi-android/films/4/"
            ],
            "gender": "male",
            "hair_color": "none",
            "height": "196",
            "homeworld": "https://gotev.github.io/swapi-android/planets/8/",
            "mass": "66",
            "name": "Jar Jar Binks",
            "skin_color": "orange",
            "species": [
                "https://gotev.github.io/swapi-android/species/12/"
            ],
            "starships": [],
            "url": "https://gotev.github.io/swapi-android/people/36/",
            "vehicles": []
        },
        {
            "birth_year": "unknown",
            "created": "2014-12-19T17:32:56.741000Z",
            "edited": "2014-12-20T21:17:50.385000Z",
            "eye_color": "orange",
            "films": [
                "https://gotev.github.io/swapi-android/films/4/"
            ],
            "gender": "male",
            "hair_color": "none",
            "height": "224",
            "homeworld": "https://gotev.github.io/swapi-android/planets/8/",
            "mass": "82",
            "name": "Roos Tarpals",
            "skin_color": "grey",
            "species": [
                "https://gotev.github.io/swapi-android/species/12/"
            ],
            "starships": [],
            "url": "https://gotev.github.io/swapi-android/people/37/",
            "vehicles": []
        },
        {
            "birth_year": "unknown",
            "created": "2014-12-19T17:33:38.909000Z",
            "edited": "2014-12-20T21:17:50.388000Z",
            "eye_color": "orange",
            "films": [
                "https://gotev.github.io/swapi-android/films/4/"
            ],
            "gender": "male",
            "hair_color": "none",
            "height": "206",
            "homeworld": "https://gotev.github.io/swapi-android/planets/8/",
            "mass": "unknown",
            "name": "Rugor Nass",
            "skin_color": "green",
            "species": [
                "https://gotev.github.io/swapi-android/species/12/"
            ],
            "starships": [],
            "url": "https://gotev.github.io/swapi-android/people/38/",
            "vehicles": []
        },
        {
            "birth_year": "unknown",
            "created": "2014-12-19T17:45:01.522000Z",
            "edited": "2014-12-20T21:17:50.392000Z",
            "eye_color": "blue",
            "films": [
                "https://gotev.github.io/swapi-android/films/4/"
            ],
            "gender": "male",
            "hair_color": "brown",
            "height": "183",
            "homeworld": "https://gotev.github.io/swapi-android/planets/8/",
            "mass": "unknown",
            "name": "Ric Oli\u00e9",
            "skin_color": "fair",
            "species": [],
            "starships": [
                "https://gotev.github.io/swapi-android/starships/40/"
            ],
            "url": "https://gotev.github.io/swapi-android/people/39/",
            "vehicles": []
        },
        {
            "birth_year": "unknown",
            "created": "2014-12-19T17:48:54.647000Z",
            "edited": "2014-12-20T21:17:50.395000Z",
            "eye_color": "yellow",
            "films": [
                "https://gotev.github.io/swapi-android/films/5/",
                "https://gotev.github.io/swapi-android/films/4/"
            ],
            "gender": "male",
            "hair_color": "black",
            "height": "137",
            "homeworld": "https://gotev.github.io/swapi-android/planets/34/",
            "mass": "unknown",
            "name": "Watto",
            "skin_color": "blue, grey",
            "species": [
                "https://gotev.github.io/swapi-android/species/13/"
            ],
            "starships": [],
            "url": "https://gotev.github.io/swapi-android/people/40/",
            "vehicles": []
        },
        {
            "birth_year": "unknown",
            "created": "2014-12-19T17:53:02.586000Z",
            "edited": "2014-12-20T21:17:50.397000Z",
            "eye_color": "orange",
            "films": [
                "https://gotev.github.io/swapi-android/films/4/"
            ],
            "gender": "male",
            "hair_color": "none",
            "height": "112",
            "homeworld": "https://gotev.github.io/swapi-android/planets/35/",
            "mass": "40",
            "name": "Sebulba",
            "skin_color": "grey, red",
            "species": [
                "https://gotev.github.io/swapi-android/species/14/"
            ],
            "starships": [],
            "url": "https://gotev.github.io/swapi-android/people/41/",
            "vehicles": []
        },
        {
            "birth_year": "62BBY",
            "created": "2014-12-19T17:55:43.348000Z",
            "edited": "2014-12-20T21:17:50.399000Z",
            "eye_color": "brown",
            "films": [
                "https://gotev.github.io/swapi-android/films/4/"
            ],
            "gender": "male",
            "hair_color": "black",
            "height": "183",
            "homeworld": "https://gotev.github.io/swapi-android/planets/8/",
            "mass": "unknown",
            "name": "Quarsh Panaka",
            "skin_color": "dark",
            "species": [],
            "starships": [],
            "url": "https://gotev.github.io/swapi-android/people/42/",
            "vehicles": []
        }
    ]
}
