{
    "count": 87,
    "next": "https://swapi.co/api/people/?page=9",
    "previous": "https://swapi.co/api/people/?page=7",
    "results": [
        {
            "birth_year": "unknown",
            "created": "2014-12-20T17:32:51.996000Z",
            "edited": "2014-12-20T21:17:50.476000Z",
            "eye_color": "blue",
            "films": [
                "https://swapi.co/api/films/5/"
            ],
            "gender": "female",
            "hair_color": "white",
            "height": "167",
            "homeworld": "https://swapi.co/api/planets/9/",
            "mass": "unknown",
            "name": "Jocasta Nu",
            "skin_color": "fair",
            "species": [
                "https://swapi.co/api/species/1/"
            ],
            "starships": [],
            "url": "https://swapi.co/api/people/74/",
            "vehicles": []
        },
        {
            "birth_year": "unknown",
            "created": "2014-12-20T09:53:15.086000Z",
            "edited": "2016-06-30T12:52:19.604868Z",
            "eye_color": "unknown",
            "films": [
                "https://swapi.co/api/films/4/"
            ],
            "gender": "male",
            "hair_color": "none",
            "height": "79",
            "homeworld": "https://swapi.co/api/planets/38/",
            "mass": "15",
            "name": "Ratts Tyerell",
            "skin_color": "grey, blue",
            "species": [
                "https://swapi.co/api/species/16/"
            ],
            "starships": [],
            "url": "https://swapi.co/api/people/47/",
            "vehicles": []
        },
        {
            "birth_year": "unknown",
            "created": "2014-12-20T17:43:36.409000Z",
            "edited": "2014-12-20T21:17:50.478000Z",
            "eye_color": "red, blue",
            "films": [
                "https://swapi.co/api/films/5/",
                "https://swapi.co/api/films/6/"
            ],
            "gender": "female",
            "hair_color": "none",
            "height": "96",
            "homeworld": "https://swapi.co/api/planets/28/",
            "mass": "unknown",
            "name": "R4-P17",
            "skin_color": "silver, red",
            "species": [],
            "starships": [],
            "url": "https://swapi.co/api/people/75/",
            "vehicles": []
        },
        {
            "birth_year": "unknown",
            "created": "2014-12-20T17:53:52.607000Z",
            "edited": "2014-12-20T21:17:50.481000Z",
            "eye_color": "unknown",
            "films": [
                "https://swapi.co/api/films/5/"
            ],
            "gender": "male",
            "hair_color": "none",
            "height": "193",
            "homeworld": "https://swapi.co/api/planets/56/",
            "mass": "48",
            "name": "Wat Tambor",
            "skin_color": "green, grey",
            "species": [
                "https://swapi.co/api/species/33/"
            ],
            "starships": [],
            "url": "https://swapi.co/api/people/76/",
            "vehicles": []
        },
        {
            "birth_year": "unknown",
            "created": "2014-12-20T17:58:17.049000Z",
            "edited": "2014-12-20T21:17:50.484000Z",
            "eye_color": "gold",
            "films": [
                "https://swapi.co/api/films/5/"
            ],
            "gender": "male",
            "hair_color": "none",
            "height": "191",
            "homeworld": "https://swapi.co/api/planets/57/",
            "mass": "unknown",
            "name": "San Hill",
            "skin_color": "grey",
            "species": [
                "https://swapi.co/api/species/34/"
            ],
            "starships": [],
            "url": "https://swapi.co/api/people/77/",
            "vehicles": []
        },
        {
            "birth_year": "unknown",
            "created": "2014-12-20T18:44:01.103000Z",
            "edited": "2014-12-20T21:17:50.486000Z",
            "eye_color": "black",
            "films": [
                "https://swapi.co/api/films/5/",
                "https://swapi.co/api/films/6/"
            ],
            "gender": "female",
            "hair_color": "none",
            "height": "178",
            "homeworld": "https://swapi.co/api/planets/58/",
            "mass": "57",
            "name": "Shaak Ti",
            "skin_color": "red, blue, white",
            "species": [
                "https://swapi.co/api/species/35/"
            ],
            "starships": [],
            "url": "https://swapi.co/api/people/78/",
            "vehicles": []
        },
        {
            "birth_year": "unknown",
            "created": "2014-12-20T19:43:53.348000Z",
            "edited": "2014-12-20T21:17:50.488000Z",
            "eye_color": "green, yellow",
            "films": [
                "https://swapi.co/api/films/6/"
            ],
            "gender": "male",
            "hair_color": "none",
            "height": "216",
            "homeworld": "https://swapi.co/api/planets/59/",
            "mass": "159",
            "name": "Grievous",
            "skin_color": "brown, white",
            "species": [
                "https://swapi.co/api/species/36/"
            ],
            "starships": [
                "https://swapi.co/api/starships/74/"
            ],
            "url": "https://swapi.co/api/people/79/",
            "vehicles": [
                "https://swapi.co/api/vehicles/60/"
            ]
        },
        {
            "birth_year": "unknown",
            "created": "2014-12-20T19:46:34.209000Z",
            "edited": "2014-12-20T21:17:50.491000Z",
            "eye_color": "blue",
            "films": [
                "https://swapi.co/api/films/6/"
            ],
            "gender": "male",
            "hair_color": "brown",
            "height": "234",
            "homeworld": "https://swapi.co/api/planets/14/",
            "mass": "136",
            "name": "Tarfful",
            "skin_color": "brown",
            "species": [
                "https://swapi.co/api/species/3/"
            ],
            "starships": [],
            "url": "https://swapi.co/api/people/80/",
            "vehicles": []
        },
        {
            "birth_year": "unknown",
            "created": "2014-12-20T19:49:35.583000Z",
            "edited": "2014-12-20T21:17:50.493000Z",
            "eye_color": "brown",
            "films": [
                "https://swapi.co/api/films/6/",
                "https://swapi.co/api/films/1/"
            ],
            "gender": "male",
            "hair_color": "brown",
            "height": "188",
            "homeworld": "https://swapi.co/api/planets/2/",
            "mass": "79",
            "name": "Raymus Antilles",
            "skin_color": "light",
            "species": [
                "https://swapi.co/api/species/1/"
            ],
            "starships": [],
            "url": "https://swapi.co/api/people/81/",
            "vehicles": []
        },
        {
            "birth_year": "unknown",
            "created": "2014-12-20T20:18:37.619000Z",
            "edited": "2014-12-20T21:17:50.496000Z",
            "eye_color": "white",
            "films": [
                "https://swapi.co/api/films/5/",
                "https://swapi.co/api/films/6/"
            ],
            "gender": "female",
            "hair_color": "none",
            "height": "178",
            "homeworld": "https://swapi.co/api/planets/60/",
            "mass": "48",
            "name": "Sly Moore",
            "skin_color": "pale",
            "species": [],
            "starships": [],
            "url": "https://swapi.co/api/people/82/",
            "vehicles": []
        }
    ]
}
