{
    "count": 61,
    "next": "https://gotev.github.io/swapi-android/planets/?page=7",
    "previous": "https://gotev.github.io/swapi-android/planets/?page=5",
    "results": [
        {
            "climate": "unknown",
            "created": "2014-12-20T16:52:13.357000Z",
            "diameter": "unknown",
            "edited": "2014-12-20T20:58:18.510000Z",
            "films": [],
            "gravity": "unknown",
            "name": "Serenno",
            "orbital_period": "unknown",
            "population": "unknown",
            "residents": [
                "https://gotev.github.io/swapi-android/people/67/"
            ],
            "rotation_period": "unknown",
            "surface_water": "unknown",
            "terrain": "rainforests, rivers, mountains",
            "url": "https://gotev.github.io/swapi-android/planets/52/"
        },
        {
            "climate": "unknown",
            "created": "2014-12-20T16:54:39.909000Z",
            "diameter": "unknown",
            "edited": "2014-12-20T20:58:18.512000Z",
            "films": [],
            "gravity": "unknown",
            "name": "Concord Dawn",
            "orbital_period": "unknown",
            "population": "unknown",
            "residents": [
                "https://gotev.github.io/swapi-android/people/69/"
            ],
            "rotation_period": "unknown",
            "surface_water": "unknown",
            "terrain": "jungles, forests, deserts",
            "url": "https://gotev.github.io/swapi-android/planets/53/"
        },
        {
            "climate": "unknown",
            "created": "2014-12-20T16:56:37.250000Z",
            "diameter": "unknown",
            "edited": "2014-12-20T20:58:18.514000Z",
            "films": [],
            "gravity": "unknown",
            "name": "Zolan",
            "orbital_period": "unknown",
            "population": "unknown",
            "residents": [
                "https://gotev.github.io/swapi-android/people/70/"
            ],
            "rotation_period": "unknown",
            "surface_water": "unknown",
            "terrain": "unknown",
            "url": "https://gotev.github.io/swapi-android/planets/54/"
        },
        {
            "climate": "frigid",
            "created": "2014-12-20T17:27:41.286000Z",
            "diameter": "unknown",
            "edited": "2014-12-20T20:58:18.516000Z",
            "films": [],
            "gravity": "unknown",
            "name": "Ojom",
            "orbital_period": "unknown",
            "population": "500000000",
            "residents": [
                "https://gotev.github.io/swapi-android/people/71/"
            ],
            "rotation_period": "unknown",
            "surface_water": "100",
            "terrain": "oceans, glaciers",
            "url": "https://gotev.github.io/swapi-android/planets/55/"
        },
        {
            "climate": "temperate",
            "created": "2014-12-20T17:50:47.864000Z",
            "diameter": "unknown",
            "edited": "2014-12-20T20:58:18.517000Z",
            "films": [],
            "gravity": "1",
            "name": "Skako",
            "orbital_period": "384",
            "population": "500000000000",
            "residents": [
                "https://gotev.github.io/swapi-android/people/76/"
            ],
            "rotation_period": "27",
            "surface_water": "unknown",
            "terrain": "urban, vines",
            "url": "https://gotev.github.io/swapi-android/planets/56/"
        },
        {
            "climate": "temperate",
            "created": "2014-12-20T17:57:47.420000Z",
            "diameter": "13800",
            "edited": "2014-12-20T20:58:18.519000Z",
            "films": [],
            "gravity": "1",
            "name": "Muunilinst",
            "orbital_period": "412",
            "population": "5000000000",
            "residents": [
                "https://gotev.github.io/swapi-android/people/77/"
            ],
            "rotation_period": "28",
            "surface_water": "25",
            "terrain": "plains, forests, hills, mountains",
            "url": "https://gotev.github.io/swapi-android/planets/57/"
        },
        {
            "climate": "temperate",
            "created": "2014-12-20T18:43:14.049000Z",
            "diameter": "unknown",
            "edited": "2014-12-20T20:58:18.521000Z",
            "films": [],
            "gravity": "1",
            "name": "Shili",
            "orbital_period": "unknown",
            "population": "unknown",
            "residents": [
                "https://gotev.github.io/swapi-android/people/78/"
            ],
            "rotation_period": "unknown",
            "surface_water": "unknown",
            "terrain": "cities, savannahs, seas, plains",
            "url": "https://gotev.github.io/swapi-android/planets/58/"
        },
        {
            "climate": "arid, temperate, tropical",
            "created": "2014-12-20T19:43:51.278000Z",
            "diameter": "13850",
            "edited": "2014-12-20T20:58:18.523000Z",
            "films": [],
            "gravity": "1",
            "name": "Kalee",
            "orbital_period": "378",
            "population": "4000000000",
            "residents": [
                "https://gotev.github.io/swapi-android/people/79/"
            ],
            "rotation_period": "23",
            "surface_water": "unknown",
            "terrain": "rainforests, cliffs, canyons, seas",
            "url": "https://gotev.github.io/swapi-android/planets/59/"
        },
        {
            "climate": "unknown",
            "created": "2014-12-20T20:18:36.256000Z",
            "diameter": "unknown",
            "edited": "2014-12-20T20:58:18.525000Z",
            "films": [],
            "gravity": "unknown",
            "name": "Umbara",
            "orbital_period": "unknown",
            "population": "unknown",
            "residents": [
                "https://gotev.github.io/swapi-android/people/82/"
            ],
            "rotation_period": "unknown",
            "surface_water": "unknown",
            "terrain": "unknown",
            "url": "https://gotev.github.io/swapi-android/planets/60/"
        },
        {
            "climate": "arid",
            "created": "2014-12-09T13:50:49.641000Z",
            "diameter": "10465",
            "edited": "2014-12-21T20:48:04.175778Z",
            "films": [
                "https://gotev.github.io/swapi-android/films/5/",
                "https://gotev.github.io/swapi-android/films/4/",
                "https://gotev.github.io/swapi-android/films/6/",
                "https://gotev.github.io/swapi-android/films/3/",
                "https://gotev.github.io/swapi-android/films/1/"
            ],
            "gravity": "1 standard",
            "name": "Tatooine",
            "orbital_period": "304",
            "population": "200000",
            "residents": [
                "https://gotev.github.io/swapi-android/people/1/",
                "https://gotev.github.io/swapi-android/people/2/",
                "https://gotev.github.io/swapi-android/people/4/",
                "https://gotev.github.io/swapi-android/people/6/",
                "https://gotev.github.io/swapi-android/people/7/",
                "https://gotev.github.io/swapi-android/people/8/",
                "https://gotev.github.io/swapi-android/people/9/",
                "https://gotev.github.io/swapi-android/people/11/",
                "https://gotev.github.io/swapi-android/people/43/",
                "https://gotev.github.io/swapi-android/people/62/"
            ],
            "rotation_period": "23",
            "surface_water": "1",
            "terrain": "desert",
            "url": "https://gotev.github.io/swapi-android/planets/1/"
        }
    ]
}
