{
    "count": 61,
    "next": "https://swapi.co/api/planets/?page=2",
    "previous": null,
    "results": [
        {
            "climate": "temperate",
            "created": "2014-12-10T11:35:48.479000Z",
            "diameter": "12500",
            "edited": "2014-12-20T20:58:18.420000Z",
            "films": [
                "https://swapi.co/api/films/6/",
                "https://swapi.co/api/films/1/"
            ],
            "gravity": "1 standard",
            "name": "Alderaan",
            "orbital_period": "364",
            "population": "2000000000",
            "residents": [
                "https://swapi.co/api/people/5/",
                "https://swapi.co/api/people/68/",
                "https://swapi.co/api/people/81/"
            ],
            "rotation_period": "24",
            "surface_water": "40",
            "terrain": "grasslands, mountains",
            "url": "https://swapi.co/api/planets/2/"
        },
        {
            "climate": "temperate, tropical",
            "created": "2014-12-10T11:37:19.144000Z",
            "diameter": "10200",
            "edited": "2014-12-20T20:58:18.421000Z",
            "films": [
                "https://swapi.co/api/films/1/"
            ],
            "gravity": "1 standard",
            "name": "Yavin IV",
            "orbital_period": "4818",
            "population": "1000",
            "residents": [],
            "rotation_period": "24",
            "surface_water": "8",
            "terrain": "jungle, rainforests",
            "url": "https://swapi.co/api/planets/3/"
        },
        {
            "climate": "frozen",
            "created": "2014-12-10T11:39:13.934000Z",
            "diameter": "7200",
            "edited": "2014-12-20T20:58:18.423000Z",
            "films": [
                "https://swapi.co/api/films/2/"
            ],
            "gravity": "1.1 standard",
            "name": "Hoth",
            "orbital_period": "549",
            "population": "unknown",
            "residents": [],
            "rotation_period": "23",
            "surface_water": "100",
            "terrain": "tundra, ice caves, mountain ranges",
            "url": "https://swapi.co/api/planets/4/"
        },
        {
            "climate": "murky",
            "created": "2014-12-10T11:42:22.590000Z",
            "diameter": "8900",
            "edited": "2014-12-20T20:58:18.425000Z",
            "films": [
                "https://swapi.co/api/films/2/",
                "https://swapi.co/api/films/6/",
                "https://swapi.co/api/films/3/"
            ],
            "gravity": "N/A",
            "name": "Dagobah",
            "orbital_period": "341",
            "population": "unknown",
            "residents": [],
            "rotation_period": "23",
            "surface_water": "8",
            "terrain": "swamp, jungles",
            "url": "https://swapi.co/api/planets/5/"
        },
        {
            "climate": "temperate",
            "created": "2014-12-10T11:43:55.240000Z",
            "diameter": "118000",
            "edited": "2014-12-20T20:58:18.427000Z",
            "films": [
                "https://swapi.co/api/films/2/"
            ],
            "gravity": "1.5 (surface), 1 standard (Cloud City)",
            "name": "Bespin",
            "orbital_period": "5110",
            "population": "6000000",
            "residents": [
                "https://swapi.co/api/people/26/"
            ],
            "rotation_period": "12",
            "surface_water": "0",
            "terrain": "gas giant",
            "url": "https://swapi.co/api/planets/6/"
        },
        {
            "climate": "temperate",
            "created": "2014-12-10T11:50:29.349000Z",
            "diameter": "4900",
            "edited": "2014-12-20T20:58:18.429000Z",
            "films": [
                "https://swapi.co/api/films/3/"
            ],
            "gravity": "0.85 standard",
            "name": "Endor",
            "orbital_period": "402",
            "population": "30000000",
            "residents": [
                "https://swapi.co/api/people/30/"
            ],
            "rotation_period": "18",
            "surface_water": "8",
            "terrain": "forests, mountains, lakes",
            "url": "https://swapi.co/api/planets/7/"
        },
        {
            "climate": "temperate",
            "created": "2014-12-10T11:52:31.066000Z",
            "diameter": "12120",
            "edited": "2014-12-20T20:58:18.430000Z",
            "films": [
                "https://swapi.co/api/films/5/",
                "https://swapi.co/api/films/4/",
                "https://swapi.co/api/films/6/",
                "https://swapi.co/api/films/3/"
            ],
            "gravity": "1 standard",
            "name": "Naboo",
            "orbital_period": "312",
            "population": "4500000000",
            "residents": [
                "https://swapi.co/api/people/3/",
                "https://swapi.co/api/people/21/",
                "https://swapi.co/api/people/36/",
                "https://swapi.co/api/people/37/",
                "https://swapi.co/api/people/38/",
                "https://swapi.co/api/people/39/",
                "https://swapi.co/api/people/42/",
                "https://swapi.co/api/people/60/",
                "https://swapi.co/api/people/61/",
                "https://swapi.co/api/people/66/",
                "https://swapi.co/api/people/35/"
            ],
            "rotation_period": "26",
            "surface_water": "12",
            "terrain": "grassy hills, swamps, forests, mountains",
            "url": "https://swapi.co/api/planets/8/"
        },
        {
            "climate": "temperate",
            "created": "2014-12-10T11:54:13.921000Z",
            "diameter": "12240",
            "edited": "2014-12-20T20:58:18.432000Z",
            "films": [
                "https://swapi.co/api/films/5/",
                "https://swapi.co/api/films/4/",
                "https://swapi.co/api/films/6/",
                "https://swapi.co/api/films/3/"
            ],
            "gravity": "1 standard",
            "name": "Coruscant",
            "orbital_period": "368",
            "population": "1000000000000",
            "residents": [
                "https://swapi.co/api/people/34/",
                "https://swapi.co/api/people/55/",
                "https://swapi.co/api/people/74/"
            ],
            "rotation_period": "24",
            "surface_water": "unknown",
            "terrain": "cityscape, mountains",
            "url": "https://swapi.co/api/planets/9/"
        },
        {
            "climate": "temperate",
            "created": "2014-12-10T12:45:06.577000Z",
            "diameter": "19720",
            "edited": "2014-12-20T20:58:18.434000Z",
            "films": [
                "https://swapi.co/api/films/5/"
            ],
            "gravity": "1 standard",
            "name": "Kamino",
            "orbital_period": "463",
            "population": "1000000000",
            "residents": [
                "https://swapi.co/api/people/22/",
                "https://swapi.co/api/people/72/",
                "https://swapi.co/api/people/73/"
            ],
            "rotation_period": "27",
            "surface_water": "100",
            "terrain": "ocean",
            "url": "https://swapi.co/api/planets/10/"
        },
        {
            "climate": "temperate, arid",
            "created": "2014-12-10T12:47:22.350000Z",
            "diameter": "11370",
            "edited": "2014-12-20T20:58:18.437000Z",
            "films": [
                "https://swapi.co/api/films/5/"
            ],
            "gravity": "0.9 standard",
            "name": "Geonosis",
            "orbital_period": "256",
            "population": "100000000000",
            "residents": [
                "https://swapi.co/api/people/63/"
            ],
            "rotation_period": "30",
            "surface_water": "5",
            "terrain": "rock, desert, mountain, barren",
            "url": "https://swapi.co/api/planets/11/"
        }
    ]
}
