{
    "count": 39,
    "next": "https://swapi.co/api/vehicles/?page=4",
    "previous": "https://swapi.co/api/vehicles/?page=2",
    "results": [
        {
            "cargo_capacity": "200",
            "consumables": "none",
            "cost_in_credits": "5750",
            "created": "2014-12-20T16:24:16.026000Z",
            "crew": "1",
            "edited": "2014-12-22T18:21:16.117652Z",
            "films": [
                "https://swapi.co/api/films/5/"
            ],
            "length": "3.68",
            "manufacturer": "Mobquet Swoops and Speeders",
            "max_atmosphering_speed": "350",
            "model": "Zephyr-G swoop bike",
            "name": "Zephyr-G swoop bike",
            "passengers": "1",
            "pilots": [
                "https://swapi.co/api/people/11/"
            ],
            "url": "https://swapi.co/api/vehicles/44/",
            "vehicle_class": "repulsorcraft"
        },
        {
            "cargo_capacity": "80",
            "consumables": "unknown",
            "cost_in_credits": "unknown",
            "created": "2014-12-20T17:17:33.526000Z",
            "crew": "1",
            "edited": "2014-12-22T18:21:16.140018Z",
            "films": [
                "https://swapi.co/api/films/5/"
            ],
            "length": "6.6",
            "manufacturer": "Desler Gizh Outworld Mobility Corporation",
            "max_atmosphering_speed": "800",
            "model": "Koro-2 Exodrive airspeeder",
            "name": "Koro-2 Exodrive airspeeder",
            "passengers": "1",
            "pilots": [
                "https://swapi.co/api/people/70/"
            ],
            "url": "https://swapi.co/api/vehicles/45/",
            "vehicle_class": "airspeeder"
        },
        {
            "cargo_capacity": "unknown",
            "consumables": "unknown",
            "cost_in_credits": "unknown",
            "created": "2014-12-20T17:19:19.991000Z",
            "crew": "1",
            "edited": "2014-12-22T18:21:16.150194Z",
            "films": [
                "https://swapi.co/api/films/5/"
            ],
            "length": "6.23",
            "manufacturer": "Narglatch AirTech prefabricated kit",
            "max_atmosphering_speed": "720",
            "model": "XJ-6 airspeeder",
            "name": "XJ-6 airspeeder",
            "passengers": "1",
            "pilots": [
                "https://swapi.co/api/people/11/"
            ],
            "url": "https://swapi.co/api/vehicles/46/",
            "vehicle_class": "airspeeder"
        },
        {
            "cargo_capacity": "170",
            "consumables": "unknown",
            "cost_in_credits": "unknown",
            "created": "2014-12-20T18:01:21.014000Z",
            "crew": "6",
            "edited": "2014-12-22T18:21:16.181363Z",
            "films": [
                "https://swapi.co/api/films/5/",
                "https://swapi.co/api/films/6/"
            ],
            "length": "17.4",
            "manufacturer": "Rothana Heavy Engineering",
            "max_atmosphering_speed": "620",
            "model": "Low Altitude Assault Transport/infrantry",
            "name": "LAAT/i",
            "passengers": "30",
            "pilots": [],
            "url": "https://swapi.co/api/vehicles/50/",
            "vehicle_class": "gunship"
        },
        {
            "cargo_capacity": "40000",
            "consumables": "unknown",
            "cost_in_credits": "unknown",
            "created": "2014-12-20T18:02:46.802000Z",
            "crew": "1",
            "edited": "2014-12-22T18:21:16.229733Z",
            "films": [
                "https://swapi.co/api/films/5/"
            ],
            "length": "28.82",
            "manufacturer": "Rothana Heavy Engineering",
            "max_atmosphering_speed": "620",
            "model": "Low Altitude Assault Transport/carrier",
            "name": "LAAT/c",
            "passengers": "0",
            "pilots": [],
            "url": "https://swapi.co/api/vehicles/51/",
            "vehicle_class": "gunship"
        },
        {
            "cargo_capacity": "10",
            "consumables": "none",
            "cost_in_credits": "15000",
            "created": "2014-12-20T19:43:54.870000Z",
            "crew": "1",
            "edited": "2014-12-22T18:21:16.422662Z",
            "films": [
                "https://swapi.co/api/films/6/"
            ],
            "length": "3.5",
            "manufacturer": "Z-Gomot Ternbuell Guppat Corporation",
            "max_atmosphering_speed": "330",
            "model": "Tsmeu-6 personal wheel bike",
            "name": "Tsmeu-6 personal wheel bike",
            "passengers": "1",
            "pilots": [
                "https://swapi.co/api/people/79/"
            ],
            "url": "https://swapi.co/api/vehicles/60/",
            "vehicle_class": "wheeled walker"
        },
        {
            "cargo_capacity": "unknown",
            "consumables": "unknown",
            "cost_in_credits": "unknown",
            "created": "2014-12-20T19:50:58.559000Z",
            "crew": "2",
            "edited": "2014-12-22T18:21:16.450655Z",
            "films": [
                "https://swapi.co/api/films/6/"
            ],
            "length": "unknown",
            "manufacturer": "unknown",
            "max_atmosphering_speed": "unknown",
            "model": "Fire suppression speeder",
            "name": "Emergency Firespeeder",
            "passengers": "unknown",
            "pilots": [],
            "url": "https://swapi.co/api/vehicles/62/",
            "vehicle_class": "fire suppression ship"
        },
        {
            "cargo_capacity": "0",
            "consumables": "none",
            "cost_in_credits": "20000",
            "created": "2014-12-20T20:05:19.992000Z",
            "crew": "1",
            "edited": "2014-12-22T18:21:16.478901Z",
            "films": [
                "https://swapi.co/api/films/6/"
            ],
            "length": "5.4",
            "manufacturer": "Colla Designs, Phlac-Arphocc Automata Industries",
            "max_atmosphering_speed": "1180",
            "model": "tri-fighter",
            "name": "Droid tri-fighter",
            "passengers": "0",
            "pilots": [],
            "url": "https://swapi.co/api/vehicles/67/",
            "vehicle_class": "droid starfighter"
        },
        {
            "cargo_capacity": "50",
            "consumables": "3 days",
            "cost_in_credits": "12125",
            "created": "2014-12-20T20:20:53.931000Z",
            "crew": "2",
            "edited": "2014-12-22T18:21:16.517049Z",
            "films": [
                "https://swapi.co/api/films/6/"
            ],
            "length": "15.1",
            "manufacturer": "Appazanna Engineering Works",
            "max_atmosphering_speed": "420",
            "model": "Oevvaor jet catamaran",
            "name": "Oevvaor jet catamaran",
            "passengers": "2",
            "pilots": [],
            "url": "https://swapi.co/api/vehicles/69/",
            "vehicle_class": "airspeeder"
        },
        {
            "cargo_capacity": "20",
            "consumables": "none",
            "cost_in_credits": "14750",
            "created": "2014-12-20T20:21:55.648000Z",
            "crew": "2",
            "edited": "2014-12-22T18:21:16.547708Z",
            "films": [
                "https://swapi.co/api/films/6/"
            ],
            "length": "7",
            "manufacturer": "Appazanna Engineering Works",
            "max_atmosphering_speed": "310",
            "model": "Raddaugh Gnasp fluttercraft",
            "name": "Raddaugh Gnasp fluttercraft",
            "passengers": "0",
            "pilots": [],
            "url": "https://swapi.co/api/vehicles/70/",
            "vehicle_class": "air speeder"
        }
    ]
}
