{
    "count": 61,
    "next": "https://gotev.github.io/swapi-android/planets/?page=5",
    "previous": "https://gotev.github.io/swapi-android/planets/?page=3",
    "results": [
        {
            "climate": "temperate",
            "created": "2014-12-18T11:11:51.872000Z",
            "diameter": "13500",
            "edited": "2014-12-20T20:58:18.472000Z",
            "films": [],
            "gravity": "1",
            "name": "Chandrila",
            "orbital_period": "368",
            "population": "1200000000",
            "residents": [
                "https://gotev.github.io/swapi-android/people/28/"
            ],
            "rotation_period": "20",
            "surface_water": "40",
            "terrain": "plains, forests",
            "url": "https://gotev.github.io/swapi-android/planets/32/"
        },
        {
            "climate": "superheated",
            "created": "2014-12-18T11:25:40.243000Z",
            "diameter": "12780",
            "edited": "2014-12-20T20:58:18.474000Z",
            "films": [],
            "gravity": "1",
            "name": "Sullust",
            "orbital_period": "263",
            "population": "18500000000",
            "residents": [
                "https://gotev.github.io/swapi-android/people/31/"
            ],
            "rotation_period": "20",
            "surface_water": "5",
            "terrain": "mountains, volcanoes, rocky deserts",
            "url": "https://gotev.github.io/swapi-android/planets/33/"
        },
        {
            "climate": "temperate",
            "created": "2014-12-19T17:47:54.403000Z",
            "diameter": "7900",
            "edited": "2014-12-20T20:58:18.476000Z",
            "films": [],
            "gravity": "1",
            "name": "Toydaria",
            "orbital_period": "184",
            "population": "11000000",
            "residents": [
                "https://gotev.github.io/swapi-android/people/40/"
            ],
            "rotation_period": "21",
            "surface_water": "unknown",
            "terrain": "swamps, lakes",
            "url": "https://gotev.github.io/swapi-android/planets/34/"
        },
        {
            "climate": "arid, temperate, tropical",
            "created": "2014-12-19T17:52:13.106000Z",
            "diameter": "18880",
            "edited": "2014-12-20T20:58:18.478000Z",
            "films": [],
            "gravity": "1.56",
            "name": "Malastare",
            "orbital_period": "201",
            "population": "2000000000",
            "residents": [
                "https://gotev.github.io/swapi-android/people/41/"
            ],
            "rotation_period": "26",
            "surface_water": "unknown",
            "terrain": "swamps, deserts, jungles, mountains",
            "url": "https://gotev.github.io/swapi-android/planets/35/"
        },
        {
            "climate": "temperate",
            "created": "2014-12-19T18:00:40.142000Z",
            "diameter": "10480",
            "edited": "2014-12-20T20:58:18.480000Z",
            "films": [],
            "gravity": "0.9",
            "name": "Dathomir",
            "orbital_period": "491",
            "population": "5200",
            "residents": [
                "https://gotev.github.io/swapi-android/people/44/"
            ],
            "rotation_period": "24",
            "surface_water": "unknown",
            "terrain": "forests, deserts, savannas",
            "url": "https://gotev.github.io/swapi-android/planets/36/"
        },
        {
            "climate": "temperate, arid, subartic",
            "created": "2014-12-20T09:46:25.740000Z",
            "diameter": "10600",
            "edited": "2014-12-20T20:58:18.481000Z",
            "films": [],
            "gravity": "1",
            "name": "Ryloth",
            "orbital_period": "305",
            "population": "1500000000",
            "residents": [
                "https://gotev.github.io/swapi-android/people/45/",
                "https://gotev.github.io/swapi-android/people/46/"
            ],
            "rotation_period": "30",
            "surface_water": "5",
            "terrain": "mountains, valleys, deserts, tundra",
            "url": "https://gotev.github.io/swapi-android/planets/37/"
        },
        {
            "climate": "unknown",
            "created": "2014-12-20T09:52:23.452000Z",
            "diameter": "unknown",
            "edited": "2014-12-20T20:58:18.483000Z",
            "films": [],
            "gravity": "unknown",
            "name": "Aleen Minor",
            "orbital_period": "unknown",
            "population": "unknown",
            "residents": [
                "https://gotev.github.io/swapi-android/people/47/"
            ],
            "rotation_period": "unknown",
            "surface_water": "unknown",
            "terrain": "unknown",
            "url": "https://gotev.github.io/swapi-android/planets/38/"
        },
        {
            "climate": "temperate, artic",
            "created": "2014-12-20T09:56:58.874000Z",
            "diameter": "14900",
            "edited": "2014-12-20T20:58:18.485000Z",
            "films": [],
            "gravity": "1",
            "name": "Vulpter",
            "orbital_period": "391",
            "population": "421000000",
            "residents": [
                "https://gotev.github.io/swapi-android/people/48/"
            ],
            "rotation_period": "22",
            "surface_water": "unknown",
            "terrain": "urban, barren",
            "url": "https://gotev.github.io/swapi-android/planets/39/"
        },
        {
            "climate": "unknown",
            "created": "2014-12-20T10:01:37.395000Z",
            "diameter": "unknown",
            "edited": "2014-12-20T20:58:18.487000Z",
            "films": [],
            "gravity": "unknown",
            "name": "Troiken",
            "orbital_period": "unknown",
            "population": "unknown",
            "residents": [
                "https://gotev.github.io/swapi-android/people/49/"
            ],
            "rotation_period": "unknown",
            "surface_water": "unknown",
            "terrain": "desert, tundra, rainforests, mountains",
            "url": "https://gotev.github.io/swapi-android/planets/40/"
        },
        {
            "climate": "unknown",
            "created": "2014-12-20T10:07:29.578000Z",
            "diameter": "12190",
            "edited": "2014-12-20T20:58:18.489000Z",
            "films": [],
            "gravity": "unknown",
            "name": "Tund",
            "orbital_period": "1770",
            "population": "0",
            "residents": [
                "https://gotev.github.io/swapi-android/people/50/"
            ],
            "rotation_period": "48",
            "surface_water": "unknown",
            "terrain": "barren, ash",
            "url": "https://gotev.github.io/swapi-android/planets/41/"
        }
    ]
}
