{
    "count": 87,
    "next": "https://gotev.github.io/swapi-android/people/?page=4",
    "previous": "https://gotev.github.io/swapi-android/people/?page=2",
    "results": [
        {
            "birth_year": "31.5BBY",
            "created": "2014-12-15T12:49:32.457000Z",
            "edited": "2014-12-20T21:17:50.349000Z",
            "eye_color": "brown",
            "films": [
                "https://gotev.github.io/swapi-android/films/2/",
                "https://gotev.github.io/swapi-android/films/5/",
                "https://gotev.github.io/swapi-android/films/3/"
            ],
            "gender": "male",
            "hair_color": "black",
            "height": "183",
            "homeworld": "https://gotev.github.io/swapi-android/planets/10/",
            "mass": "78.2",
            "name": "Boba Fett",
            "skin_color": "fair",
            "species": [
                "https://gotev.github.io/swapi-android/species/1/"
            ],
            "starships": [
                "https://gotev.github.io/swapi-android/starships/21/"
            ],
            "url": "https://gotev.github.io/swapi-android/people/22/",
            "vehicles": []
        },
        {
            "birth_year": "15BBY",
            "created": "2014-12-15T12:51:10.076000Z",
            "edited": "2014-12-20T21:17:50.351000Z",
            "eye_color": "red",
            "films": [
                "https://gotev.github.io/swapi-android/films/2/"
            ],
            "gender": "none",
            "hair_color": "none",
            "height": "200",
            "homeworld": "https://gotev.github.io/swapi-android/planets/28/",
            "mass": "140",
            "name": "IG-88",
            "skin_color": "metal",
            "species": [
                "https://gotev.github.io/swapi-android/species/2/"
            ],
            "starships": [],
            "url": "https://gotev.github.io/swapi-android/people/23/",
            "vehicles": []
        },
        {
            "birth_year": "53BBY",
            "created": "2014-12-15T12:53:49.297000Z",
            "edited": "2014-12-20T21:17:50.355000Z",
            "eye_color": "red",
            "films": [
                "https://gotev.github.io/swapi-android/films/2/"
            ],
            "gender": "male",
            "hair_color": "none",
            "height": "190",
            "homeworld": "https://gotev.github.io/swapi-android/planets/29/",
            "mass": "113",
            "name": "Bossk",
            "skin_color": "green",
            "species": [
                "https://gotev.github.io/swapi-android/species/7/"
            ],
            "starships": [],
            "url": "https://gotev.github.io/swapi-android/people/24/",
            "vehicles": []
        },
        {
            "birth_year": "31BBY",
            "created": "2014-12-15T12:56:32.683000Z",
            "edited": "2014-12-20T21:17:50.357000Z",
            "eye_color": "brown",
            "films": [
                "https://gotev.github.io/swapi-android/films/2/",
                "https://gotev.github.io/swapi-android/films/3/"
            ],
            "gender": "male",
            "hair_color": "black",
            "height": "177",
            "homeworld": "https://gotev.github.io/swapi-android/planets/30/",
            "mass": "79",
            "name": "Lando Calrissian",
            "skin_color": "dark",
            "species": [
                "https://gotev.github.io/swapi-android/species/1/"
            ],
            "starships": [
                "https://gotev.github.io/swapi-android/starships/10/"
            ],
            "url": "https://gotev.github.io/swapi-android/people/25/",
            "vehicles": []
        },
        {
            "birth_year": "37BBY",
            "created": "2014-12-15T13:01:57.178000Z",
            "edited": "2014-12-20T21:17:50.359000Z",
            "eye_color": "blue",
            "films": [
                "https://gotev.github.io/swapi-android/films/2/"
            ],
            "gender": "male",
            "hair_color": "none",
            "height": "175",
            "homeworld": "https://gotev.github.io/swapi-android/planets/6/",
            "mass": "79",
            "name": "Lobot",
            "skin_color": "light",
            "species": [
                "https://gotev.github.io/swapi-android/species/1/"
            ],
            "starships": [],
            "url": "https://gotev.github.io/swapi-android/people/26/",
            "vehicles": []
        },
        {
            "birth_year": "41BBY",
            "created": "2014-12-18T11:07:50.584000Z",
            "edited": "2014-12-20T21:17:50.362000Z",
            "eye_color": "orange",
            "films": [
                "https://gotev.github.io/swapi-android/films/3/",
                "https://gotev.github.io/swapi-android/films/7/"
            ],
            "gender": "male",
            "hair_color": "none",
            "height": "180",
            "homeworld": "https://gotev.github.io/swapi-android/planets/31/",
            "mass": "83",
            "name": "Ackbar",
            "skin_color": "brown mottle",
            "species": [
                "https://gotev.github.io/swapi-android/species/8/"
            ],
            "starships": [],
            "url": "https://gotev.github.io/swapi-android/people/27/",
            "vehicles": []
        },
        {
            "birth_year": "48BBY",
            "created": "2014-12-18T11:12:38.895000Z",
            "edited": "2014-12-20T21:17:50.364000Z",
            "eye_color": "blue",
            "films": [
                "https://gotev.github.io/swapi-android/films/3/"
            ],
            "gender": "female",
            "hair_color": "auburn",
            "height": "150",
            "homeworld": "https://gotev.github.io/swapi-android/planets/32/",
            "mass": "unknown",
            "name": "Mon Mothma",
            "skin_color": "fair",
            "species": [
                "https://gotev.github.io/swapi-android/species/1/"
            ],
            "starships": [],
            "url": "https://gotev.github.io/swapi-android/people/28/",
            "vehicles": []
        },
        {
            "birth_year": "unknown",
            "created": "2014-12-18T11:16:33.020000Z",
            "edited": "2014-12-20T21:17:50.367000Z",
            "eye_color": "brown",
            "films": [
                "https://gotev.github.io/swapi-android/films/3/"
            ],
            "gender": "male",
            "hair_color": "brown",
            "height": "unknown",
            "homeworld": "https://gotev.github.io/swapi-android/planets/28/",
            "mass": "unknown",
            "name": "Arvel Crynyd",
            "skin_color": "fair",
            "species": [
                "https://gotev.github.io/swapi-android/species/1/"
            ],
            "starships": [
                "https://gotev.github.io/swapi-android/starships/28/"
            ],
            "url": "https://gotev.github.io/swapi-android/people/29/",
            "vehicles": []
        },
        {
            "birth_year": "8BBY",
            "created": "2014-12-18T11:21:58.954000Z",
            "edited": "2014-12-20T21:17:50.369000Z",
            "eye_color": "brown",
            "films": [
                "https://gotev.github.io/swapi-android/films/3/"
            ],
            "gender": "male",
            "hair_color": "brown",
            "height": "88",
            "homeworld": "https://gotev.github.io/swapi-android/planets/7/",
            "mass": "20",
            "name": "Wicket Systri Warrick",
            "skin_color": "brown",
            "species": [
                "https://gotev.github.io/swapi-android/species/9/"
            ],
            "starships": [],
            "url": "https://gotev.github.io/swapi-android/people/30/",
            "vehicles": []
        },
        {
            "birth_year": "unknown",
            "created": "2014-12-18T11:26:18.541000Z",
            "edited": "2014-12-20T21:17:50.371000Z",
            "eye_color": "black",
            "films": [
                "https://gotev.github.io/swapi-android/films/3/"
            ],
            "gender": "male",
            "hair_color": "none",
            "height": "160",
            "homeworld": "https://gotev.github.io/swapi-android/planets/33/",
            "mass": "68",
            "name": "Nien Nunb",
            "skin_color": "grey",
            "species": [
                "https://gotev.github.io/swapi-android/species/10/"
            ],
            "starships": [
                "https://gotev.github.io/swapi-android/starships/10/"
            ],
            "url": "https://gotev.github.io/swapi-android/people/31/",
            "vehicles": []
        }
    ]
}
