{
    "count": 37,
    "next": "https://swapi.co/api/species/?page=2",
    "previous": null,
    "results": [
        {
            "average_height": "300",
            "average_lifespan": "1000",
            "classification": "gastropod",
            "created": "2014-12-10T17:12:50.410000Z",
            "designation": "sentient",
            "edited": "2014-12-20T21:36:42.146000Z",
            "eye_colors": "yellow, red",
            "films": [
                "https://swapi.co/api/films/3/",
                "https://swapi.co/api/films/1/"
            ],
            "hair_colors": "n/a",
            "homeworld": "https://swapi.co/api/planets/24/",
            "language": "Huttese",
            "name": "Hutt",
            "people": [
                "https://swapi.co/api/people/16/"
            ],
            "skin_colors": "green, brown, tan",
            "url": "https://swapi.co/api/species/5/"
        },
        {
            "average_height": "66",
            "average_lifespan": "900",
            "classification": "mammal",
            "created": "2014-12-15T12:27:22.877000Z",
            "designation": "sentient",
            "edited": "2014-12-20T21:36:42.148000Z",
            "eye_colors": "brown, green, yellow",
            "films": [
                "https://swapi.co/api/films/2/",
                "https://swapi.co/api/films/5/",
                "https://swapi.co/api/films/4/",
                "https://swapi.co/api/films/6/",
                "https://swapi.co/api/films/3/"
            ],
            "hair_colors": "brown, white",
            "homeworld": "https://swapi.co/api/planets/28/",
            "language": "Galactic basic",
            "name": "Yoda's species",
            "people": [
                "https://swapi.co/api/people/20/"
            ],
            "skin_colors": "green, yellow",
            "url": "https://swapi.co/api/species/6/"
        },
        {
            "average_height": "200",
            "average_lifespan": "unknown",
            "classification": "reptile",
            "created": "2014-12-15T13:07:47.704000Z",
            "designation": "sentient",
            "edited": "2014-12-20T21:36:42.151000Z",
            "eye_colors": "yellow, orange",
            "films": [
                "https://swapi.co/api/films/2/"
            ],
            "hair_colors": "none",
            "homeworld": "https://swapi.co/api/planets/29/",
            "language": "Dosh",
            "name": "Trandoshan",
            "people": [
                "https://swapi.co/api/people/24/"
            ],
            "skin_colors": "brown, green",
            "url": "https://swapi.co/api/species/7/"
        },
        {
            "average_height": "160",
            "average_lifespan": "unknown",
            "classification": "amphibian",
            "created": "2014-12-18T11:09:52.263000Z",
            "designation": "sentient",
            "edited": "2014-12-20T21:36:42.153000Z",
            "eye_colors": "yellow",
            "films": [
                "https://swapi.co/api/films/3/"
            ],
            "hair_colors": "none",
            "homeworld": "https://swapi.co/api/planets/31/",
            "language": "Mon Calamarian",
            "name": "Mon Calamari",
            "people": [
                "https://swapi.co/api/people/27/"
            ],
            "skin_colors": "red, blue, brown, magenta",
            "url": "https://swapi.co/api/species/8/"
        },
        {
            "average_height": "100",
            "average_lifespan": "unknown",
            "classification": "mammal",
            "created": "2014-12-18T11:22:00.285000Z",
            "designation": "sentient",
            "edited": "2014-12-20T21:36:42.155000Z",
            "eye_colors": "orange, brown",
            "films": [
                "https://swapi.co/api/films/3/"
            ],
            "hair_colors": "white, brown, black",
            "homeworld": "https://swapi.co/api/planets/7/",
            "language": "Ewokese",
            "name": "Ewok",
            "people": [
                "https://swapi.co/api/people/30/"
            ],
            "skin_colors": "brown",
            "url": "https://swapi.co/api/species/9/"
        },
        {
            "average_height": "180",
            "average_lifespan": "unknown",
            "classification": "mammal",
            "created": "2014-12-18T11:26:20.103000Z",
            "designation": "sentient",
            "edited": "2014-12-20T21:36:42.157000Z",
            "eye_colors": "black",
            "films": [
                "https://swapi.co/api/films/3/"
            ],
            "hair_colors": "none",
            "homeworld": "https://swapi.co/api/planets/33/",
            "language": "Sullutese",
            "name": "Sullustan",
            "people": [
                "https://swapi.co/api/people/31/"
            ],
            "skin_colors": "pale",
            "url": "https://swapi.co/api/species/10/"
        },
        {
            "average_height": "180",
            "average_lifespan": "unknown",
            "classification": "unknown",
            "created": "2014-12-19T17:07:31.319000Z",
            "designation": "sentient",
            "edited": "2014-12-20T21:36:42.160000Z",
            "eye_colors": "red, pink",
            "films": [
                "https://swapi.co/api/films/4/"
            ],
            "hair_colors": "none",
            "homeworld": "https://swapi.co/api/planets/18/",
            "language": "Neimoidia",
            "name": "Neimodian",
            "people": [
                "https://swapi.co/api/people/33/"
            ],
            "skin_colors": "grey, green",
            "url": "https://swapi.co/api/species/11/"
        },
        {
            "average_height": "190",
            "average_lifespan": "unknown",
            "classification": "amphibian",
            "created": "2014-12-19T17:30:37.341000Z",
            "designation": "sentient",
            "edited": "2014-12-20T21:36:42.163000Z",
            "eye_colors": "orange",
            "films": [
                "https://swapi.co/api/films/5/",
                "https://swapi.co/api/films/4/"
            ],
            "hair_colors": "none",
            "homeworld": "https://swapi.co/api/planets/8/",
            "language": "Gungan basic",
            "name": "Gungan",
            "people": [
                "https://swapi.co/api/people/36/",
                "https://swapi.co/api/people/37/",
                "https://swapi.co/api/people/38/"
            ],
            "skin_colors": "brown, green",
            "url": "https://swapi.co/api/species/12/"
        },
        {
            "average_height": "120",
            "average_lifespan": "91",
            "classification": "mammal",
            "created": "2014-12-19T17:48:56.893000Z",
            "designation": "sentient",
            "edited": "2014-12-20T21:36:42.165000Z",
            "eye_colors": "yellow",
            "films": [
                "https://swapi.co/api/films/5/",
                "https://swapi.co/api/films/4/"
            ],
            "hair_colors": "none",
            "homeworld": "https://swapi.co/api/planets/34/",
            "language": "Toydarian",
            "name": "Toydarian",
            "people": [
                "https://swapi.co/api/people/40/"
            ],
            "skin_colors": "blue, green, grey",
            "url": "https://swapi.co/api/species/13/"
        },
        {
            "average_height": "100",
            "average_lifespan": "unknown",
            "classification": "mammal",
            "created": "2014-12-19T17:53:11.214000Z",
            "designation": "sentient",
            "edited": "2014-12-20T21:36:42.167000Z",
            "eye_colors": "yellow, blue",
            "films": [
                "https://swapi.co/api/films/4/"
            ],
            "hair_colors": "none",
            "homeworld": "https://swapi.co/api/planets/35/",
            "language": "Dugese",
            "name": "Dug",
            "people": [
                "https://swapi.co/api/people/41/"
            ],
            "skin_colors": "brown, purple, grey, red",
            "url": "https://swapi.co/api/species/14/"
        }
    ]
}
